Automatic Replacement Tools • pid.pos
…
which if parsed, can be used to modify the original data set:

redaction.f <- load_replacement_rules(updated.replacement_rules, parse=T)

the_one_in_massapequa |>
  mutate(
    across(
      where(is.character),
      redaction.f
    )
  )

#> # A tibble: 257 × 4
#>    scene utterance speaker          text                                        
#>    <int>     <int> <chr>            <chr>                                       
#>  1     1         1 Scene Directions [Scene: YIYLU MRGYZ, everyone is there.]    
#>  2     1         2 IYNWQ ZVCCI      Oh, FXZPU, EHUFY, is it okay if I bring som…
#>  3     1         3 CCBTU QNLAM      Yeah.                                       
#>  4     1         4 FXZPU QNLAM      Sure. Yeah.                                 
#>  5     1         5 JZKUZ UTNHH      So, who's the guy?                          
#>  6     1         6 IYNWQ ZVCCI      Well, his name is MVPNY and I met him at th…
#>  7     1         7 Chandler JYZIE   Oooh, did he put a little starch in your bl…
#>  8     1         8 IYNWQ ZVCCI      Yeah, he's really great though. He has this…
#>  9     1         9 CCBTU QNLAM      Oh, by the way. Would it be okay if I gave …
#> 10     1        10 FXZPU QNLAM      Uh, yeah, you sure you want to after what h…
#> # ℹ 247 more rows
…
