…
To use this with
[`pid_pos()`](https://stat-cook.github.io/pid.pos/reference/pid_pos.md),
we wrap it with
[`custom_tagger()`](https://stat-cook.github.io/pid.pos/reference/custom_tagger.md):

``` r
friends_tagger <- custom_tagger(sentence_tagger)

friends_tagger(example.data$text)
#> # A tibble: 263 × 4
#>    Token    upos     ID Sentence                                                
#>    <chr>    <chr> <int> <chr>                                                   
#>  1 Scene    XXX       1 [Scene: Central Perk, everyone is there.]               
#>  2 Central  XXX       1 [Scene: Central Perk, everyone is there.]               
#>  3 Perk     XXX       1 [Scene: Central Perk, everyone is there.]               
#>  4 everyone XXX       1 [Scene: Central Perk, everyone is there.]               
#>  5 is       XXX       1 [Scene: Central Perk, everyone is there.]               
#>  6 there    XXX       1 [Scene: Central Perk, everyone is there.]               
#>  7 Oh       XXX       2 Oh, Ross, Mon, is it okay if I bring someone to your pa…
#>  8 Ross     PROPN     2 Oh, Ross, Mon, is it okay if I bring someone to your pa…
#>  9 Mon      XXX       2 Oh, Ross, Mon, is it okay if I bring someone to your pa…
#> 10 is       XXX       2 Oh, Ross, Mon, is it okay if I bring someone to your pa…
#> # ℹ 253 more rows
```
…
