…
``` r
# install.packages("pak")
pak::pkg_install("Stat-Cook/PID.POS")
```

To assist with understanding the `PID.POS` package, we include a subset
of the ‘friends’ data set from the `friends` package.

``` r
library(pid.pos)
the_one_in_massapequa
```

    #> # A tibble: 257 × 4
    #>   scene utterance speaker          text                                         
    #>   <int>     <int> <chr>            <chr>                                        
    #> 1     1         1 Scene Directions [Scene: Central Perk, everyone is there.]    
    #> 2     1         2 Phoebe Buffay    Oh, Ross, Mon, is it okay if I bring someone…
    #> 3     1         3 Monica Geller    Yeah.                                        
    #> 4     1         4 Ross Geller      Sure. Yeah.                                  
    #> # ℹ 253 more rows
…
- `ID` - the column and row where the sentence first appears
- `Token` - the specific proper noun token
- `Sentence` - the sentence containing proper nouns
- `Repeats` - the number of times the sentence occurs in the data set
- `Affected Columns` - the columns in the original data frame which
  contain the sentence

``` r
report <- data_frame_report(the_one_in_massapequa)
report
#> # A tibble: 176 × 6
#>   ID                Token  Sentence      Document     Repeats `Affected Columns`
#>   <glue>            <chr>  <chr>         <chr>          <int> <chr>             
#> 1 Col:speaker Row:2 Phoebe Phoebe Buffay Phoebe Buff…      40 `speaker`         
#> 2 Col:speaker Row:2 Buffay Phoebe Buffay Phoebe Buff…      40 `speaker`         
#> 3 Col:speaker Row:3 Monica Monica Geller Monica Gell…      25 `speaker`         
#> 4 Col:speaker Row:3 Geller Monica Geller Monica Gell…      25 `speaker`         
#> # ℹ 172 more rows
```
…
- `If` - the sentence pattern which, if it matches, the replacement is
  applied
- `From` - the pattern to be replaced
- `To` - the intended replacement

``` r
replacement_rules <- report_to_redaction_rules(
  report,
  path = "path/to/report.csv"
)
```

    #> # A tibble: 176 × 3
    #>   If            From   To    
    #>   <chr>         <chr>  <chr> 
    #> 1 Phoebe Buffay Phoebe Phoebe
    #> 2 Phoebe Buffay Buffay Buffay
    #> 3 Monica Geller Monica Monica
    #> 4 Monica Geller Geller Geller
    #> # ℹ 172 more rows
…
